2018-08-15 11:56:52.314619	acccuracy:	59.80	levenshtein:	0.45	message:	adyghe	guess:	../conll2018/task1/all\adyghe-low-out	gold:	../conll2018/task1/all\adyghe-dev	task:	1
2018-08-15 11:56:52.590730	acccuracy:	85.50	levenshtein:	0.14	message:	adyghe	guess:	../conll2018/task1/all\adyghe-medium-out	gold:	../conll2018/task1/all\adyghe-dev	task:	1
2018-08-15 11:56:52.866927	acccuracy:	94.80	levenshtein:	0.05	message:	adyghe	guess:	../conll2018/task1/all\adyghe-high-out	gold:	../conll2018/task1/all\adyghe-dev	task:	1
2018-08-15 11:56:53.151128	acccuracy:	22.70	levenshtein:	4.36	message:	albanian	guess:	../conll2018/task1/all\albanian-low-out	gold:	../conll2018/task1/all\albanian-dev	task:	1
2018-08-15 11:56:53.417337	acccuracy:	60.20	levenshtein:	1.37	message:	albanian	guess:	../conll2018/task1/all\albanian-medium-out	gold:	../conll2018/task1/all\albanian-dev	task:	1
2018-08-15 11:56:53.763582	acccuracy:	77.20	levenshtein:	0.68	message:	albanian	guess:	../conll2018/task1/all\albanian-high-out	gold:	../conll2018/task1/all\albanian-dev	task:	1
2018-08-15 11:56:54.134828	acccuracy:	22.90	levenshtein:	3.09	message:	arabic	guess:	../conll2018/task1/all\arabic-low-out	gold:	../conll2018/task1/all\arabic-dev	task:	1
2018-08-15 11:56:54.392011	acccuracy:	37.00	levenshtein:	2.02	message:	arabic	guess:	../conll2018/task1/all\arabic-medium-out	gold:	../conll2018/task1/all\arabic-dev	task:	1
2018-08-15 11:56:54.672210	acccuracy:	42.80	levenshtein:	1.62	message:	arabic	guess:	../conll2018/task1/all\arabic-high-out	gold:	../conll2018/task1/all\arabic-dev	task:	1
2018-08-15 11:56:54.949407	acccuracy:	37.90	levenshtein:	2.22	message:	armenian	guess:	../conll2018/task1/all\armenian-low-out	gold:	../conll2018/task1/all\armenian-dev	task:	1
2018-08-15 11:56:55.186576	acccuracy:	72.40	levenshtein:	0.58	message:	armenian	guess:	../conll2018/task1/all\armenian-medium-out	gold:	../conll2018/task1/all\armenian-dev	task:	1
2018-08-15 11:56:55.454766	acccuracy:	88.60	levenshtein:	0.21	message:	armenian	guess:	../conll2018/task1/all\armenian-high-out	gold:	../conll2018/task1/all\armenian-dev	task:	1
2018-08-15 11:56:55.730962	acccuracy:	59.80	levenshtein:	1.00	message:	asturian	guess:	../conll2018/task1/all\asturian-low-out	gold:	../conll2018/task1/all\asturian-dev	task:	1
2018-08-15 11:56:55.907101	acccuracy:	87.90	levenshtein:	0.26	message:	asturian	guess:	../conll2018/task1/all\asturian-medium-out	gold:	../conll2018/task1/all\asturian-dev	task:	1
2018-08-15 11:56:56.095240	acccuracy:	95.50	levenshtein:	0.12	message:	asturian	guess:	../conll2018/task1/all\asturian-high-out	gold:	../conll2018/task1/all\asturian-dev	task:	1
2018-08-15 11:56:56.275368	acccuracy:	21.00	levenshtein:	3.35	message:	azeri	guess:	../conll2018/task1/all\azeri-low-out	gold:	../conll2018/task1/all\azeri-dev	task:	1
2018-08-15 11:56:56.293381	acccuracy:	48.00	levenshtein:	2.02	message:	azeri	guess:	../conll2018/task1/all\azeri-medium-out	gold:	../conll2018/task1/all\azeri-dev	task:	1
2018-08-15 11:56:56.315391	acccuracy:	69.00	levenshtein:	0.75	message:	azeri	guess:	../conll2018/task1/all\azeri-high-out	gold:	../conll2018/task1/all\azeri-dev	task:	1
2018-08-15 11:56:56.346400	acccuracy:	38.80	levenshtein:	1.81	message:	bashkir	guess:	../conll2018/task1/all\bashkir-low-out	gold:	../conll2018/task1/all\bashkir-dev	task:	1
2018-08-15 11:56:56.502511	acccuracy:	73.80	levenshtein:	0.61	message:	bashkir	guess:	../conll2018/task1/all\bashkir-medium-out	gold:	../conll2018/task1/all\bashkir-dev	task:	1
2018-08-15 11:56:56.694647	acccuracy:	89.10	levenshtein:	0.32	message:	bashkir	guess:	../conll2018/task1/all\bashkir-high-out	gold:	../conll2018/task1/all\bashkir-dev	task:	1
2018-08-15 11:56:56.884782	acccuracy:	0.10	levenshtein:	6.49	message:	basque	guess:	../conll2018/task1/all\basque-low-out	gold:	../conll2018/task1/all\basque-dev	task:	1
2018-08-15 11:56:57.015876	acccuracy:	1.90	levenshtein:	5.57	message:	basque	guess:	../conll2018/task1/all\basque-medium-out	gold:	../conll2018/task1/all\basque-dev	task:	1
2018-08-15 11:56:57.172987	acccuracy:	8.40	levenshtein:	3.40	message:	basque	guess:	../conll2018/task1/all\basque-high-out	gold:	../conll2018/task1/all\basque-dev	task:	1
2018-08-15 11:56:57.386157	acccuracy:	7.20	levenshtein:	2.54	message:	belarusian	guess:	../conll2018/task1/all\belarusian-low-out	gold:	../conll2018/task1/all\belarusian-dev	task:	1
2018-08-15 11:56:57.571289	acccuracy:	22.50	levenshtein:	1.99	message:	belarusian	guess:	../conll2018/task1/all\belarusian-medium-out	gold:	../conll2018/task1/all\belarusian-dev	task:	1
2018-08-15 11:56:57.773432	acccuracy:	41.40	levenshtein:	1.58	message:	belarusian	guess:	../conll2018/task1/all\belarusian-high-out	gold:	../conll2018/task1/all\belarusian-dev	task:	1
2018-08-15 11:56:57.964550	acccuracy:	44.00	levenshtein:	1.49	message:	bengali	guess:	../conll2018/task1/all\bengali-low-out	gold:	../conll2018/task1/all\bengali-dev	task:	1
2018-08-15 11:56:57.983578	acccuracy:	75.00	levenshtein:	0.44	message:	bengali	guess:	../conll2018/task1/all\bengali-medium-out	gold:	../conll2018/task1/all\bengali-dev	task:	1
2018-08-15 11:56:58.004580	acccuracy:	84.00	levenshtein:	0.28	message:	bengali	guess:	../conll2018/task1/all\bengali-high-out	gold:	../conll2018/task1/all\bengali-dev	task:	1
2018-08-15 11:56:58.024611	acccuracy:	20.00	levenshtein:	2.34	message:	breton	guess:	../conll2018/task1/all\breton-low-out	gold:	../conll2018/task1/all\breton-dev	task:	1
2018-08-15 11:56:58.036619	acccuracy:	51.00	levenshtein:	1.43	message:	breton	guess:	../conll2018/task1/all\breton-medium-out	gold:	../conll2018/task1/all\breton-dev	task:	1
2018-08-15 11:56:58.050625	acccuracy:	55.00	levenshtein:	1.27	message:	breton	guess:	../conll2018/task1/all\breton-high-out	gold:	../conll2018/task1/all\breton-dev	task:	1
2018-08-15 11:56:58.072640	acccuracy:	32.70	levenshtein:	1.69	message:	bulgarian	guess:	../conll2018/task1/all\bulgarian-low-out	gold:	../conll2018/task1/all\bulgarian-dev	task:	1
2018-08-15 11:56:58.289781	acccuracy:	74.40	levenshtein:	0.44	message:	bulgarian	guess:	../conll2018/task1/all\bulgarian-medium-out	gold:	../conll2018/task1/all\bulgarian-dev	task:	1
2018-08-15 11:56:58.524948	acccuracy:	90.60	levenshtein:	0.16	message:	bulgarian	guess:	../conll2018/task1/all\bulgarian-high-out	gold:	../conll2018/task1/all\bulgarian-dev	task:	1
2018-08-15 11:56:58.760115	acccuracy:	54.30	levenshtein:	1.02	message:	catalan	guess:	../conll2018/task1/all\catalan-low-out	gold:	../conll2018/task1/all\catalan-dev	task:	1
2018-08-15 11:56:58.958256	acccuracy:	82.20	levenshtein:	0.37	message:	catalan	guess:	../conll2018/task1/all\catalan-medium-out	gold:	../conll2018/task1/all\catalan-dev	task:	1
2018-08-15 11:56:59.164403	acccuracy:	94.30	levenshtein:	0.13	message:	catalan	guess:	../conll2018/task1/all\catalan-high-out	gold:	../conll2018/task1/all\catalan-dev	task:	1
2018-08-15 11:56:59.359542	acccuracy:	89.00	levenshtein:	0.14	message:	classical-syriac	guess:	../conll2018/task1/all\classical-syriac-low-out	gold:	../conll2018/task1/all\classical-syriac-dev	task:	1
2018-08-15 11:56:59.370549	acccuracy:	98.00	levenshtein:	0.02	message:	classical-syriac	guess:	../conll2018/task1/all\classical-syriac-medium-out	gold:	../conll2018/task1/all\classical-syriac-dev	task:	1
2018-08-15 11:56:59.381557	acccuracy:	98.00	levenshtein:	0.02	message:	classical-syriac	guess:	../conll2018/task1/all\classical-syriac-high-out	gold:	../conll2018/task1/all\classical-syriac-dev	task:	1
2018-08-15 11:56:59.391569	acccuracy:	2.00	levenshtein:	4.02	message:	cornish	guess:	../conll2018/task1/all\cornish-low-out	gold:	../conll2018/task1/all\cornish-dev	task:	1
2018-08-15 11:56:59.399570	acccuracy:	4.00	levenshtein:	3.14	message:	cornish	guess:	../conll2018/task1/all\cornish-medium-out	gold:	../conll2018/task1/all\cornish-dev	task:	1
2018-08-15 11:56:59.407576	acccuracy:	53.00	levenshtein:	0.87	message:	crimean-tatar	guess:	../conll2018/task1/all\crimean-tatar-low-out	gold:	../conll2018/task1/all\crimean-tatar-dev	task:	1
2018-08-15 11:56:59.426589	acccuracy:	74.00	levenshtein:	0.39	message:	crimean-tatar	guess:	../conll2018/task1/all\crimean-tatar-medium-out	gold:	../conll2018/task1/all\crimean-tatar-dev	task:	1
2018-08-15 11:56:59.445603	acccuracy:	94.00	levenshtein:	0.08	message:	crimean-tatar	guess:	../conll2018/task1/all\crimean-tatar-high-out	gold:	../conll2018/task1/all\crimean-tatar-dev	task:	1
2018-08-15 11:56:59.472622	acccuracy:	38.10	levenshtein:	2.00	message:	czech	guess:	../conll2018/task1/all\czech-low-out	gold:	../conll2018/task1/all\czech-dev	task:	1
2018-08-15 11:56:59.678786	acccuracy:	78.80	levenshtein:	0.46	message:	czech	guess:	../conll2018/task1/all\czech-medium-out	gold:	../conll2018/task1/all\czech-dev	task:	1
2018-08-15 11:56:59.919939	acccuracy:	89.00	levenshtein:	0.23	message:	czech	guess:	../conll2018/task1/all\czech-high-out	gold:	../conll2018/task1/all\czech-dev	task:	1
2018-08-15 11:57:00.164127	acccuracy:	57.40	levenshtein:	0.76	message:	danish	guess:	../conll2018/task1/all\danish-low-out	gold:	../conll2018/task1/all\danish-dev	task:	1
2018-08-15 11:57:00.374276	acccuracy:	78.10	levenshtein:	0.36	message:	danish	guess:	../conll2018/task1/all\danish-medium-out	gold:	../conll2018/task1/all\danish-dev	task:	1
2018-08-15 11:57:00.589434	acccuracy:	88.90	levenshtein:	0.18	message:	danish	guess:	../conll2018/task1/all\danish-high-out	gold:	../conll2018/task1/all\danish-dev	task:	1
2018-08-15 11:57:00.808571	acccuracy:	53.20	levenshtein:	0.72	message:	dutch	guess:	../conll2018/task1/all\dutch-low-out	gold:	../conll2018/task1/all\dutch-dev	task:	1
2018-08-15 11:57:01.014390	acccuracy:	72.00	levenshtein:	0.44	message:	dutch	guess:	../conll2018/task1/all\dutch-medium-out	gold:	../conll2018/task1/all\dutch-dev	task:	1
2018-08-15 11:57:01.223538	acccuracy:	89.00	levenshtein:	0.17	message:	dutch	guess:	../conll2018/task1/all\dutch-high-out	gold:	../conll2018/task1/all\dutch-dev	task:	1
2018-08-15 11:57:01.430671	acccuracy:	77.20	levenshtein:	0.42	message:	english	guess:	../conll2018/task1/all\english-low-out	gold:	../conll2018/task1/all\english-dev	task:	1
2018-08-15 11:57:01.623809	acccuracy:	90.80	levenshtein:	0.18	message:	english	guess:	../conll2018/task1/all\english-medium-out	gold:	../conll2018/task1/all\english-dev	task:	1
2018-08-15 11:57:01.823969	acccuracy:	94.90	levenshtein:	0.09	message:	english	guess:	../conll2018/task1/all\english-high-out	gold:	../conll2018/task1/all\english-dev	task:	1
2018-08-15 11:57:02.027096	acccuracy:	22.60	levenshtein:	2.93	message:	estonian	guess:	../conll2018/task1/all\estonian-low-out	gold:	../conll2018/task1/all\estonian-dev	task:	1
2018-08-15 11:57:02.252274	acccuracy:	62.40	levenshtein:	0.78	message:	estonian	guess:	../conll2018/task1/all\estonian-medium-out	gold:	../conll2018/task1/all\estonian-dev	task:	1
2018-08-15 11:57:02.521457	acccuracy:	76.20	levenshtein:	0.45	message:	estonian	guess:	../conll2018/task1/all\estonian-high-out	gold:	../conll2018/task1/all\estonian-dev	task:	1
2018-08-15 11:57:02.795659	acccuracy:	35.60	levenshtein:	1.40	message:	faroese	guess:	../conll2018/task1/all\faroese-low-out	gold:	../conll2018/task1/all\faroese-dev	task:	1
2018-08-15 11:57:02.963774	acccuracy:	61.00	levenshtein:	0.82	message:	faroese	guess:	../conll2018/task1/all\faroese-medium-out	gold:	../conll2018/task1/all\faroese-dev	task:	1
2018-08-15 11:57:03.138887	acccuracy:	74.20	levenshtein:	0.54	message:	faroese	guess:	../conll2018/task1/all\faroese-high-out	gold:	../conll2018/task1/all\faroese-dev	task:	1
2018-08-15 11:57:03.316012	acccuracy:	15.40	levenshtein:	4.10	message:	finnish	guess:	../conll2018/task1/all\finnish-low-out	gold:	../conll2018/task1/all\finnish-dev	task:	1
2018-08-15 11:57:03.680289	acccuracy:	43.50	levenshtein:	1.41	message:	finnish	guess:	../conll2018/task1/all\finnish-medium-out	gold:	../conll2018/task1/all\finnish-dev	task:	1
2018-08-15 11:57:04.130590	acccuracy:	79.30	levenshtein:	0.33	message:	finnish	guess:	../conll2018/task1/all\finnish-high-out	gold:	../conll2018/task1/all\finnish-dev	task:	1
2018-08-15 11:57:04.595921	acccuracy:	56.80	levenshtein:	1.04	message:	french	guess:	../conll2018/task1/all\french-low-out	gold:	../conll2018/task1/all\french-dev	task:	1
2018-08-15 11:57:04.826084	acccuracy:	74.10	levenshtein:	0.51	message:	french	guess:	../conll2018/task1/all\french-medium-out	gold:	../conll2018/task1/all\french-dev	task:	1
2018-08-15 11:57:05.059250	acccuracy:	81.90	levenshtein:	0.34	message:	french	guess:	../conll2018/task1/all\french-high-out	gold:	../conll2018/task1/all\french-dev	task:	1
2018-08-15 11:57:05.286412	acccuracy:	51.00	levenshtein:	0.96	message:	friulian	guess:	../conll2018/task1/all\friulian-low-out	gold:	../conll2018/task1/all\friulian-dev	task:	1
2018-08-15 11:57:05.300421	acccuracy:	86.00	levenshtein:	0.21	message:	friulian	guess:	../conll2018/task1/all\friulian-medium-out	gold:	../conll2018/task1/all\friulian-dev	task:	1
2018-08-15 11:57:05.315451	acccuracy:	94.00	levenshtein:	0.09	message:	friulian	guess:	../conll2018/task1/all\friulian-high-out	gold:	../conll2018/task1/all\friulian-dev	task:	1
2018-08-15 11:57:05.337466	acccuracy:	52.50	levenshtein:	1.27	message:	galician	guess:	../conll2018/task1/all\galician-low-out	gold:	../conll2018/task1/all\galician-dev	task:	1
2018-08-15 11:57:05.509588	acccuracy:	82.30	levenshtein:	0.34	message:	galician	guess:	../conll2018/task1/all\galician-medium-out	gold:	../conll2018/task1/all\galician-dev	task:	1
2018-08-15 11:57:05.694715	acccuracy:	93.70	levenshtein:	0.11	message:	galician	guess:	../conll2018/task1/all\galician-high-out	gold:	../conll2018/task1/all\galician-dev	task:	1
2018-08-15 11:57:05.883854	acccuracy:	71.80	levenshtein:	0.55	message:	georgian	guess:	../conll2018/task1/all\georgian-low-out	gold:	../conll2018/task1/all\georgian-dev	task:	1
2018-08-15 11:57:06.088995	acccuracy:	89.70	levenshtein:	0.25	message:	georgian	guess:	../conll2018/task1/all\georgian-medium-out	gold:	../conll2018/task1/all\georgian-dev	task:	1
2018-08-15 11:57:06.296147	acccuracy:	93.80	levenshtein:	0.12	message:	georgian	guess:	../conll2018/task1/all\georgian-high-out	gold:	../conll2018/task1/all\georgian-dev	task:	1
2018-08-15 11:57:06.503290	acccuracy:	51.40	levenshtein:	1.24	message:	german	guess:	../conll2018/task1/all\german-low-out	gold:	../conll2018/task1/all\german-dev	task:	1
2018-08-15 11:57:06.748469	acccuracy:	74.20	levenshtein:	0.78	message:	german	guess:	../conll2018/task1/all\german-medium-out	gold:	../conll2018/task1/all\german-dev	task:	1
2018-08-15 11:57:06.996627	acccuracy:	83.10	levenshtein:	0.66	message:	german	guess:	../conll2018/task1/all\german-high-out	gold:	../conll2018/task1/all\german-dev	task:	1
2018-08-15 11:57:07.245804	acccuracy:	27.70	levenshtein:	2.73	message:	greek	guess:	../conll2018/task1/all\greek-low-out	gold:	../conll2018/task1/all\greek-dev	task:	1
2018-08-15 11:57:07.483973	acccuracy:	61.00	levenshtein:	1.03	message:	greek	guess:	../conll2018/task1/all\greek-medium-out	gold:	../conll2018/task1/all\greek-dev	task:	1
2018-08-15 11:57:07.752164	acccuracy:	77.40	levenshtein:	0.44	message:	greek	guess:	../conll2018/task1/all\greek-high-out	gold:	../conll2018/task1/all\greek-dev	task:	1
2018-08-15 11:57:08.023371	acccuracy:	36.00	levenshtein:	1.08	message:	greenlandic	guess:	../conll2018/task1/all\greenlandic-low-out	gold:	../conll2018/task1/all\greenlandic-dev	task:	1
2018-08-15 11:57:08.034384	acccuracy:	74.00	levenshtein:	0.34	message:	greenlandic	guess:	../conll2018/task1/all\greenlandic-medium-out	gold:	../conll2018/task1/all\greenlandic-dev	task:	1
2018-08-15 11:57:08.046391	acccuracy:	43.00	levenshtein:	4.89	message:	haida	guess:	../conll2018/task1/all\haida-low-out	gold:	../conll2018/task1/all\haida-dev	task:	1
2018-08-15 11:57:08.096427	acccuracy:	59.00	levenshtein:	1.11	message:	haida	guess:	../conll2018/task1/all\haida-medium-out	gold:	../conll2018/task1/all\haida-dev	task:	1
2018-08-15 11:57:08.160468	acccuracy:	71.00	levenshtein:	0.50	message:	haida	guess:	../conll2018/task1/all\haida-high-out	gold:	../conll2018/task1/all\haida-dev	task:	1
2018-08-15 11:57:08.234525	acccuracy:	27.90	levenshtein:	1.31	message:	hebrew	guess:	../conll2018/task1/all\hebrew-low-out	gold:	../conll2018/task1/all\hebrew-dev	task:	1
2018-08-15 11:57:08.314577	acccuracy:	40.00	levenshtein:	0.94	message:	hebrew	guess:	../conll2018/task1/all\hebrew-medium-out	gold:	../conll2018/task1/all\hebrew-dev	task:	1
2018-08-15 11:57:08.398637	acccuracy:	55.90	levenshtein:	0.55	message:	hebrew	guess:	../conll2018/task1/all\hebrew-high-out	gold:	../conll2018/task1/all\hebrew-dev	task:	1
2018-08-15 11:57:08.490699	acccuracy:	34.90	levenshtein:	3.61	message:	hindi	guess:	../conll2018/task1/all\hindi-low-out	gold:	../conll2018/task1/all\hindi-dev	task:	1
2018-08-15 11:57:08.733861	acccuracy:	86.10	levenshtein:	0.19	message:	hindi	guess:	../conll2018/task1/all\hindi-medium-out	gold:	../conll2018/task1/all\hindi-dev	task:	1
2018-08-15 11:57:09.039078	acccuracy:	93.60	levenshtein:	0.07	message:	hindi	guess:	../conll2018/task1/all\hindi-high-out	gold:	../conll2018/task1/all\hindi-dev	task:	1
2018-08-15 11:57:09.340292	acccuracy:	14.90	levenshtein:	2.29	message:	hungarian	guess:	../conll2018/task1/all\hungarian-low-out	gold:	../conll2018/task1/all\hungarian-dev	task:	1
2018-08-15 11:57:09.611486	acccuracy:	39.90	levenshtein:	1.53	message:	hungarian	guess:	../conll2018/task1/all\hungarian-medium-out	gold:	../conll2018/task1/all\hungarian-dev	task:	1
2018-08-15 11:57:09.911717	acccuracy:	68.70	levenshtein:	0.64	message:	hungarian	guess:	../conll2018/task1/all\hungarian-high-out	gold:	../conll2018/task1/all\hungarian-dev	task:	1
2018-08-15 11:57:10.229939	acccuracy:	35.80	levenshtein:	1.49	message:	icelandic	guess:	../conll2018/task1/all\icelandic-low-out	gold:	../conll2018/task1/all\icelandic-dev	task:	1
2018-08-15 11:57:10.391058	acccuracy:	60.30	levenshtein:	0.81	message:	icelandic	guess:	../conll2018/task1/all\icelandic-medium-out	gold:	../conll2018/task1/all\icelandic-dev	task:	1
2018-08-15 11:57:10.563175	acccuracy:	77.20	levenshtein:	0.44	message:	icelandic	guess:	../conll2018/task1/all\icelandic-high-out	gold:	../conll2018/task1/all\icelandic-dev	task:	1
2018-08-15 11:57:10.729280	acccuracy:	20.00	levenshtein:	1.86	message:	ingrian	guess:	../conll2018/task1/all\ingrian-low-out	gold:	../conll2018/task1/all\ingrian-dev	task:	1
2018-08-15 11:57:10.736285	acccuracy:	46.00	levenshtein:	0.92	message:	ingrian	guess:	../conll2018/task1/all\ingrian-medium-out	gold:	../conll2018/task1/all\ingrian-dev	task:	1
2018-08-15 11:57:10.751295	acccuracy:	31.80	levenshtein:	2.70	message:	irish	guess:	../conll2018/task1/all\irish-low-out	gold:	../conll2018/task1/all\irish-dev	task:	1
2018-08-15 11:57:11.046505	acccuracy:	44.70	levenshtein:	1.46	message:	irish	guess:	../conll2018/task1/all\irish-medium-out	gold:	../conll2018/task1/all\irish-dev	task:	1
2018-08-15 11:57:11.380760	acccuracy:	54.30	levenshtein:	1.06	message:	irish	guess:	../conll2018/task1/all\irish-high-out	gold:	../conll2018/task1/all\irish-dev	task:	1
2018-08-15 11:57:11.717996	acccuracy:	43.30	levenshtein:	2.17	message:	italian	guess:	../conll2018/task1/all\italian-low-out	gold:	../conll2018/task1/all\italian-dev	task:	1
2018-08-15 11:57:12.016194	acccuracy:	70.50	levenshtein:	0.83	message:	italian	guess:	../conll2018/task1/all\italian-medium-out	gold:	../conll2018/task1/all\italian-dev	task:	1
2018-08-15 11:57:12.298395	acccuracy:	77.20	levenshtein:	0.69	message:	italian	guess:	../conll2018/task1/all\italian-high-out	gold:	../conll2018/task1/all\italian-dev	task:	1
2018-08-15 11:57:12.580606	acccuracy:	78.00	levenshtein:	0.29	message:	kabardian	guess:	../conll2018/task1/all\kabardian-low-out	gold:	../conll2018/task1/all\kabardian-dev	task:	1
2018-08-15 11:57:12.600628	acccuracy:	90.00	levenshtein:	0.10	message:	kabardian	guess:	../conll2018/task1/all\kabardian-medium-out	gold:	../conll2018/task1/all\kabardian-dev	task:	1
2018-08-15 11:57:12.622639	acccuracy:	90.00	levenshtein:	0.10	message:	kabardian	guess:	../conll2018/task1/all\kabardian-high-out	gold:	../conll2018/task1/all\kabardian-dev	task:	1
2018-08-15 11:57:12.643655	acccuracy:	31.00	levenshtein:	2.22	message:	kannada	guess:	../conll2018/task1/all\kannada-low-out	gold:	../conll2018/task1/all\kannada-dev	task:	1
2018-08-15 11:57:12.662661	acccuracy:	58.00	levenshtein:	1.36	message:	kannada	guess:	../conll2018/task1/all\kannada-medium-out	gold:	../conll2018/task1/all\kannada-dev	task:	1
2018-08-15 11:57:12.693694	acccuracy:	66.00	levenshtein:	0.95	message:	kannada	guess:	../conll2018/task1/all\kannada-high-out	gold:	../conll2018/task1/all\kannada-dev	task:	1
2018-08-15 11:57:12.709707	acccuracy:	40.00	levenshtein:	1.76	message:	karelian	guess:	../conll2018/task1/all\karelian-low-out	gold:	../conll2018/task1/all\karelian-dev	task:	1
2018-08-15 11:57:12.718711	acccuracy:	48.00	levenshtein:	0.82	message:	karelian	guess:	../conll2018/task1/all\karelian-medium-out	gold:	../conll2018/task1/all\karelian-dev	task:	1
2018-08-15 11:57:12.730721	acccuracy:	56.00	levenshtein:	0.66	message:	kashubian	guess:	../conll2018/task1/all\kashubian-low-out	gold:	../conll2018/task1/all\kashubian-dev	task:	1
2018-08-15 11:57:12.738708	acccuracy:	74.00	levenshtein:	0.46	message:	kashubian	guess:	../conll2018/task1/all\kashubian-medium-out	gold:	../conll2018/task1/all\kashubian-dev	task:	1
2018-08-15 11:57:12.747714	acccuracy:	44.00	levenshtein:	1.64	message:	kazakh	guess:	../conll2018/task1/all\kazakh-low-out	gold:	../conll2018/task1/all\kazakh-dev	task:	1
2018-08-15 11:57:12.755733	acccuracy:	64.00	levenshtein:	0.86	message:	kazakh	guess:	../conll2018/task1/all\kazakh-medium-out	gold:	../conll2018/task1/all\kazakh-dev	task:	1
2018-08-15 11:57:12.767742	acccuracy:	36.00	levenshtein:	1.82	message:	khakas	guess:	../conll2018/task1/all\khakas-low-out	gold:	../conll2018/task1/all\khakas-dev	task:	1
2018-08-15 11:57:12.776748	acccuracy:	92.00	levenshtein:	0.20	message:	khakas	guess:	../conll2018/task1/all\khakas-medium-out	gold:	../conll2018/task1/all\khakas-dev	task:	1
2018-08-15 11:57:12.796762	acccuracy:	3.90	levenshtein:	4.30	message:	khaling	guess:	../conll2018/task1/all\khaling-low-out	gold:	../conll2018/task1/all\khaling-dev	task:	1
2018-08-15 11:57:12.900837	acccuracy:	18.40	levenshtein:	1.91	message:	khaling	guess:	../conll2018/task1/all\khaling-medium-out	gold:	../conll2018/task1/all\khaling-dev	task:	1
2018-08-15 11:57:13.047941	acccuracy:	53.80	levenshtein:	0.82	message:	khaling	guess:	../conll2018/task1/all\khaling-high-out	gold:	../conll2018/task1/all\khaling-dev	task:	1
2018-08-15 11:57:13.206050	acccuracy:	82.10	levenshtein:	0.48	message:	kurmanji	guess:	../conll2018/task1/all\kurmanji-low-out	gold:	../conll2018/task1/all\kurmanji-dev	task:	1
2018-08-15 11:57:13.407197	acccuracy:	84.70	levenshtein:	0.35	message:	kurmanji	guess:	../conll2018/task1/all\kurmanji-medium-out	gold:	../conll2018/task1/all\kurmanji-dev	task:	1
2018-08-15 11:57:13.608326	acccuracy:	91.90	levenshtein:	0.11	message:	kurmanji	guess:	../conll2018/task1/all\kurmanji-high-out	gold:	../conll2018/task1/all\kurmanji-dev	task:	1
2018-08-15 11:57:13.802464	acccuracy:	59.00	levenshtein:	1.06	message:	ladin	guess:	../conll2018/task1/all\ladin-low-out	gold:	../conll2018/task1/all\ladin-dev	task:	1
2018-08-15 11:57:13.819476	acccuracy:	85.00	levenshtein:	0.40	message:	ladin	guess:	../conll2018/task1/all\ladin-medium-out	gold:	../conll2018/task1/all\ladin-dev	task:	1
2018-08-15 11:57:13.836488	acccuracy:	92.00	levenshtein:	0.14	message:	ladin	guess:	../conll2018/task1/all\ladin-high-out	gold:	../conll2018/task1/all\ladin-dev	task:	1
2018-08-15 11:57:13.863508	acccuracy:	16.00	levenshtein:	2.84	message:	latin	guess:	../conll2018/task1/all\latin-low-out	gold:	../conll2018/task1/all\latin-dev	task:	1
2018-08-15 11:57:14.100676	acccuracy:	36.80	levenshtein:	1.10	message:	latin	guess:	../conll2018/task1/all\latin-medium-out	gold:	../conll2018/task1/all\latin-dev	task:	1
2018-08-15 11:57:14.364863	acccuracy:	45.60	levenshtein:	0.86	message:	latin	guess:	../conll2018/task1/all\latin-high-out	gold:	../conll2018/task1/all\latin-dev	task:	1
2018-08-15 11:57:14.627050	acccuracy:	53.40	levenshtein:	0.86	message:	latvian	guess:	../conll2018/task1/all\latvian-low-out	gold:	../conll2018/task1/all\latvian-dev	task:	1
2018-08-15 11:57:14.875240	acccuracy:	85.80	levenshtein:	0.22	message:	latvian	guess:	../conll2018/task1/all\latvian-medium-out	gold:	../conll2018/task1/all\latvian-dev	task:	1
2018-08-15 11:57:15.127419	acccuracy:	92.00	levenshtein:	0.17	message:	latvian	guess:	../conll2018/task1/all\latvian-high-out	gold:	../conll2018/task1/all\latvian-dev	task:	1
2018-08-15 11:57:15.378584	acccuracy:	23.50	levenshtein:	1.92	message:	lithuanian	guess:	../conll2018/task1/all\lithuanian-low-out	gold:	../conll2018/task1/all\lithuanian-dev	task:	1
2018-08-15 11:57:15.574723	acccuracy:	53.00	levenshtein:	0.71	message:	lithuanian	guess:	../conll2018/task1/all\lithuanian-medium-out	gold:	../conll2018/task1/all\lithuanian-dev	task:	1
2018-08-15 11:57:15.793881	acccuracy:	64.70	levenshtein:	0.47	message:	lithuanian	guess:	../conll2018/task1/all\lithuanian-high-out	gold:	../conll2018/task1/all\lithuanian-dev	task:	1
2018-08-15 11:57:16.058085	acccuracy:	25.00	levenshtein:	2.17	message:	livonian	guess:	../conll2018/task1/all\livonian-low-out	gold:	../conll2018/task1/all\livonian-dev	task:	1
2018-08-15 11:57:16.075098	acccuracy:	47.00	levenshtein:	1.70	message:	livonian	guess:	../conll2018/task1/all\livonian-medium-out	gold:	../conll2018/task1/all\livonian-dev	task:	1
2018-08-15 11:57:16.094106	acccuracy:	58.00	levenshtein:	1.10	message:	livonian	guess:	../conll2018/task1/all\livonian-high-out	gold:	../conll2018/task1/all\livonian-dev	task:	1
2018-08-15 11:57:16.122122	acccuracy:	30.70	levenshtein:	1.28	message:	lower-sorbian	guess:	../conll2018/task1/all\lower-sorbian-low-out	gold:	../conll2018/task1/all\lower-sorbian-dev	task:	1
2018-08-15 11:57:16.246214	acccuracy:	70.40	levenshtein:	0.55	message:	lower-sorbian	guess:	../conll2018/task1/all\lower-sorbian-medium-out	gold:	../conll2018/task1/all\lower-sorbian-dev	task:	1
2018-08-15 11:57:16.377307	acccuracy:	88.10	levenshtein:	0.22	message:	lower-sorbian	guess:	../conll2018/task1/all\lower-sorbian-high-out	gold:	../conll2018/task1/all\lower-sorbian-dev	task:	1
2018-08-15 11:57:16.516394	acccuracy:	51.40	levenshtein:	0.87	message:	macedonian	guess:	../conll2018/task1/all\macedonian-low-out	gold:	../conll2018/task1/all\macedonian-dev	task:	1
2018-08-15 11:57:16.735549	acccuracy:	83.80	levenshtein:	0.33	message:	macedonian	guess:	../conll2018/task1/all\macedonian-medium-out	gold:	../conll2018/task1/all\macedonian-dev	task:	1
2018-08-15 11:57:17.051773	acccuracy:	93.20	levenshtein:	0.14	message:	macedonian	guess:	../conll2018/task1/all\macedonian-high-out	gold:	../conll2018/task1/all\macedonian-dev	task:	1
2018-08-15 11:57:17.265928	acccuracy:	11.00	levenshtein:	2.05	message:	maltese	guess:	../conll2018/task1/all\maltese-low-out	gold:	../conll2018/task1/all\maltese-dev	task:	1
2018-08-15 11:57:17.277936	acccuracy:	21.00	levenshtein:	1.69	message:	maltese	guess:	../conll2018/task1/all\maltese-medium-out	gold:	../conll2018/task1/all\maltese-dev	task:	1
2018-08-15 11:57:17.290945	acccuracy:	25.00	levenshtein:	1.60	message:	maltese	guess:	../conll2018/task1/all\maltese-high-out	gold:	../conll2018/task1/all\maltese-dev	task:	1
2018-08-15 11:57:17.303956	acccuracy:	62.00	levenshtein:	0.60	message:	mapudungun	guess:	../conll2018/task1/all\mapudungun-low-out	gold:	../conll2018/task1/all\mapudungun-dev	task:	1
2018-08-15 11:57:17.311958	acccuracy:	80.00	levenshtein:	0.20	message:	mapudungun	guess:	../conll2018/task1/all\mapudungun-medium-out	gold:	../conll2018/task1/all\mapudungun-dev	task:	1
2018-08-15 11:57:17.328984	acccuracy:	78.70	levenshtein:	0.45	message:	middle-french	guess:	../conll2018/task1/all\middle-french-low-out	gold:	../conll2018/task1/all\middle-french-dev	task:	1
2018-08-15 11:57:17.556145	acccuracy:	90.80	levenshtein:	0.15	message:	middle-french	guess:	../conll2018/task1/all\middle-french-medium-out	gold:	../conll2018/task1/all\middle-french-dev	task:	1
2018-08-15 11:57:17.785312	acccuracy:	95.80	levenshtein:	0.07	message:	middle-french	guess:	../conll2018/task1/all\middle-french-high-out	gold:	../conll2018/task1/all\middle-french-dev	task:	1
2018-08-15 11:57:18.006451	acccuracy:	44.00	levenshtein:	0.86	message:	middle-high-german	guess:	../conll2018/task1/all\middle-high-german-low-out	gold:	../conll2018/task1/all\middle-high-german-dev	task:	1
2018-08-15 11:57:18.013470	acccuracy:	54.00	levenshtein:	0.70	message:	middle-high-german	guess:	../conll2018/task1/all\middle-high-german-medium-out	gold:	../conll2018/task1/all\middle-high-german-dev	task:	1
2018-08-15 11:57:18.021480	acccuracy:	20.00	levenshtein:	1.70	message:	middle-low-german	guess:	../conll2018/task1/all\middle-low-german-low-out	gold:	../conll2018/task1/all\middle-low-german-dev	task:	1
2018-08-15 11:57:18.029468	acccuracy:	34.00	levenshtein:	1.40	message:	middle-low-german	guess:	../conll2018/task1/all\middle-low-german-medium-out	gold:	../conll2018/task1/all\middle-low-german-dev	task:	1
2018-08-15 11:57:18.037488	acccuracy:	2.00	levenshtein:	2.78	message:	murrinhpatha	guess:	../conll2018/task1/all\murrinhpatha-low-out	gold:	../conll2018/task1/all\murrinhpatha-dev	task:	1
2018-08-15 11:57:18.040490	acccuracy:	14.00	levenshtein:	2.20	message:	murrinhpatha	guess:	../conll2018/task1/all\murrinhpatha-medium-out	gold:	../conll2018/task1/all\murrinhpatha-dev	task:	1
2018-08-15 11:57:18.054495	acccuracy:	14.30	levenshtein:	3.38	message:	navajo	guess:	../conll2018/task1/all\navajo-low-out	gold:	../conll2018/task1/all\navajo-dev	task:	1
2018-08-15 11:57:18.235616	acccuracy:	31.80	levenshtein:	2.52	message:	navajo	guess:	../conll2018/task1/all\navajo-medium-out	gold:	../conll2018/task1/all\navajo-dev	task:	1
2018-08-15 11:57:18.429754	acccuracy:	40.00	levenshtein:	2.03	message:	navajo	guess:	../conll2018/task1/all\navajo-high-out	gold:	../conll2018/task1/all\navajo-dev	task:	1
2018-08-15 11:57:18.622890	acccuracy:	83.00	levenshtein:	0.25	message:	neapolitan	guess:	../conll2018/task1/all\neapolitan-low-out	gold:	../conll2018/task1/all\neapolitan-dev	task:	1
2018-08-15 11:57:18.651924	acccuracy:	94.00	levenshtein:	0.24	message:	neapolitan	guess:	../conll2018/task1/all\neapolitan-medium-out	gold:	../conll2018/task1/all\neapolitan-dev	task:	1
2018-08-15 11:57:18.677929	acccuracy:	99.00	levenshtein:	0.03	message:	neapolitan	guess:	../conll2018/task1/all\neapolitan-high-out	gold:	../conll2018/task1/all\neapolitan-dev	task:	1
2018-08-15 11:57:18.703948	acccuracy:	38.00	levenshtein:	2.18	message:	norman	guess:	../conll2018/task1/all\norman-low-out	gold:	../conll2018/task1/all\norman-dev	task:	1
2018-08-15 11:57:18.714969	acccuracy:	60.00	levenshtein:	1.36	message:	norman	guess:	../conll2018/task1/all\norman-medium-out	gold:	../conll2018/task1/all\norman-dev	task:	1
2018-08-15 11:57:18.732981	acccuracy:	17.80	levenshtein:	2.38	message:	northern-sami	guess:	../conll2018/task1/all\northern-sami-low-out	gold:	../conll2018/task1/all\northern-sami-dev	task:	1
2018-08-15 11:57:18.926123	acccuracy:	38.80	levenshtein:	1.42	message:	northern-sami	guess:	../conll2018/task1/all\northern-sami-medium-out	gold:	../conll2018/task1/all\northern-sami-dev	task:	1
2018-08-15 11:57:19.131264	acccuracy:	64.50	levenshtein:	0.75	message:	northern-sami	guess:	../conll2018/task1/all\northern-sami-high-out	gold:	../conll2018/task1/all\northern-sami-dev	task:	1
2018-08-15 11:57:19.335409	acccuracy:	23.00	levenshtein:	3.55	message:	north-frisian	guess:	../conll2018/task1/all\north-frisian-low-out	gold:	../conll2018/task1/all\north-frisian-dev	task:	1
2018-08-15 11:57:19.352426	acccuracy:	33.00	levenshtein:	2.93	message:	north-frisian	guess:	../conll2018/task1/all\north-frisian-medium-out	gold:	../conll2018/task1/all\north-frisian-dev	task:	1
2018-08-15 11:57:19.371440	acccuracy:	31.00	levenshtein:	2.86	message:	north-frisian	guess:	../conll2018/task1/all\north-frisian-high-out	gold:	../conll2018/task1/all\north-frisian-dev	task:	1
2018-08-15 11:57:19.396458	acccuracy:	69.00	levenshtein:	0.49	message:	norwegian-bokmaal	guess:	../conll2018/task1/all\norwegian-bokmaal-low-out	gold:	../conll2018/task1/all\norwegian-bokmaal-dev	task:	1
2018-08-15 11:57:19.603587	acccuracy:	79.80	levenshtein:	0.31	message:	norwegian-bokmaal	guess:	../conll2018/task1/all\norwegian-bokmaal-medium-out	gold:	../conll2018/task1/all\norwegian-bokmaal-dev	task:	1
2018-08-15 11:57:19.811734	acccuracy:	90.60	levenshtein:	0.15	message:	norwegian-bokmaal	guess:	../conll2018/task1/all\norwegian-bokmaal-high-out	gold:	../conll2018/task1/all\norwegian-bokmaal-dev	task:	1
2018-08-15 11:57:20.017881	acccuracy:	51.40	levenshtein:	0.88	message:	norwegian-nynorsk	guess:	../conll2018/task1/all\norwegian-nynorsk-low-out	gold:	../conll2018/task1/all\norwegian-nynorsk-dev	task:	1
2018-08-15 11:57:20.199023	acccuracy:	61.60	levenshtein:	0.66	message:	norwegian-nynorsk	guess:	../conll2018/task1/all\norwegian-nynorsk-medium-out	gold:	../conll2018/task1/all\norwegian-nynorsk-dev	task:	1
2018-08-15 11:57:20.384154	acccuracy:	74.70	levenshtein:	0.44	message:	norwegian-nynorsk	guess:	../conll2018/task1/all\norwegian-nynorsk-high-out	gold:	../conll2018/task1/all\norwegian-nynorsk-dev	task:	1
2018-08-15 11:57:20.562286	acccuracy:	79.00	levenshtein:	0.74	message:	occitan	guess:	../conll2018/task1/all\occitan-low-out	gold:	../conll2018/task1/all\occitan-dev	task:	1
2018-08-15 11:57:20.579281	acccuracy:	87.00	levenshtein:	0.30	message:	occitan	guess:	../conll2018/task1/all\occitan-medium-out	gold:	../conll2018/task1/all\occitan-dev	task:	1
2018-08-15 11:57:20.597311	acccuracy:	94.00	levenshtein:	0.10	message:	occitan	guess:	../conll2018/task1/all\occitan-high-out	gold:	../conll2018/task1/all\occitan-dev	task:	1
2018-08-15 11:57:20.625327	acccuracy:	27.60	levenshtein:	1.81	message:	old-armenian	guess:	../conll2018/task1/all\old-armenian-low-out	gold:	../conll2018/task1/all\old-armenian-dev	task:	1
2018-08-15 11:57:20.763429	acccuracy:	64.90	levenshtein:	0.74	message:	old-armenian	guess:	../conll2018/task1/all\old-armenian-medium-out	gold:	../conll2018/task1/all\old-armenian-dev	task:	1
2018-08-15 11:57:20.912530	acccuracy:	76.70	levenshtein:	0.50	message:	old-armenian	guess:	../conll2018/task1/all\old-armenian-high-out	gold:	../conll2018/task1/all\old-armenian-dev	task:	1
2018-08-15 11:57:21.054636	acccuracy:	34.00	levenshtein:	1.42	message:	old-church-slavonic	guess:	../conll2018/task1/all\old-church-slavonic-low-out	gold:	../conll2018/task1/all\old-church-slavonic-dev	task:	1
2018-08-15 11:57:21.065643	acccuracy:	65.00	levenshtein:	0.72	message:	old-church-slavonic	guess:	../conll2018/task1/all\old-church-slavonic-medium-out	gold:	../conll2018/task1/all\old-church-slavonic-dev	task:	1
2018-08-15 11:57:21.077653	acccuracy:	64.00	levenshtein:	0.77	message:	old-church-slavonic	guess:	../conll2018/task1/all\old-church-slavonic-high-out	gold:	../conll2018/task1/all\old-church-slavonic-dev	task:	1
2018-08-15 11:57:21.096665	acccuracy:	16.70	levenshtein:	1.74	message:	old-english	guess:	../conll2018/task1/all\old-english-low-out	gold:	../conll2018/task1/all\old-english-dev	task:	1
2018-08-15 11:57:21.236747	acccuracy:	28.20	levenshtein:	1.33	message:	old-english	guess:	../conll2018/task1/all\old-english-medium-out	gold:	../conll2018/task1/all\old-english-dev	task:	1
2018-08-15 11:57:21.376847	acccuracy:	44.20	levenshtein:	0.82	message:	old-english	guess:	../conll2018/task1/all\old-english-high-out	gold:	../conll2018/task1/all\old-english-dev	task:	1
2018-08-15 11:57:21.522950	acccuracy:	30.40	levenshtein:	1.72	message:	old-french	guess:	../conll2018/task1/all\old-french-low-out	gold:	../conll2018/task1/all\old-french-dev	task:	1
2018-08-15 11:57:21.729098	acccuracy:	61.30	levenshtein:	0.80	message:	old-french	guess:	../conll2018/task1/all\old-french-medium-out	gold:	../conll2018/task1/all\old-french-dev	task:	1
2018-08-15 11:57:21.942262	acccuracy:	79.70	levenshtein:	0.44	message:	old-french	guess:	../conll2018/task1/all\old-french-high-out	gold:	../conll2018/task1/all\old-french-dev	task:	1
2018-08-15 11:57:22.148406	acccuracy:	12.00	levenshtein:	3.42	message:	old-irish	guess:	../conll2018/task1/all\old-irish-low-out	gold:	../conll2018/task1/all\old-irish-dev	task:	1
2018-08-15 11:57:22.154401	acccuracy:	20.00	levenshtein:	3.20	message:	old-irish	guess:	../conll2018/task1/all\old-irish-medium-out	gold:	../conll2018/task1/all\old-irish-dev	task:	1
2018-08-15 11:57:22.169413	acccuracy:	25.30	levenshtein:	1.74	message:	old-saxon	guess:	../conll2018/task1/all\old-saxon-low-out	gold:	../conll2018/task1/all\old-saxon-dev	task:	1
2018-08-15 11:57:22.300504	acccuracy:	41.70	levenshtein:	1.01	message:	old-saxon	guess:	../conll2018/task1/all\old-saxon-medium-out	gold:	../conll2018/task1/all\old-saxon-dev	task:	1
2018-08-15 11:57:22.452625	acccuracy:	60.50	levenshtein:	0.63	message:	old-saxon	guess:	../conll2018/task1/all\old-saxon-high-out	gold:	../conll2018/task1/all\old-saxon-dev	task:	1
2018-08-15 11:57:22.586707	acccuracy:	41.00	levenshtein:	1.48	message:	pashto	guess:	../conll2018/task1/all\pashto-low-out	gold:	../conll2018/task1/all\pashto-dev	task:	1
2018-08-15 11:57:22.596714	acccuracy:	71.00	levenshtein:	0.64	message:	pashto	guess:	../conll2018/task1/all\pashto-medium-out	gold:	../conll2018/task1/all\pashto-dev	task:	1
2018-08-15 11:57:22.608723	acccuracy:	77.00	levenshtein:	0.48	message:	pashto	guess:	../conll2018/task1/all\pashto-high-out	gold:	../conll2018/task1/all\pashto-dev	task:	1
2018-08-15 11:57:22.629737	acccuracy:	27.10	levenshtein:	3.14	message:	persian	guess:	../conll2018/task1/all\persian-low-out	gold:	../conll2018/task1/all\persian-dev	task:	1
2018-08-15 11:57:22.924947	acccuracy:	67.30	levenshtein:	0.93	message:	persian	guess:	../conll2018/task1/all\persian-medium-out	gold:	../conll2018/task1/all\persian-dev	task:	1
2018-08-15 11:57:23.265199	acccuracy:	81.00	levenshtein:	0.46	message:	persian	guess:	../conll2018/task1/all\persian-high-out	gold:	../conll2018/task1/all\persian-dev	task:	1
2018-08-15 11:57:23.609447	acccuracy:	40.70	levenshtein:	1.58	message:	polish	guess:	../conll2018/task1/all\polish-low-out	gold:	../conll2018/task1/all\polish-dev	task:	1
2018-08-15 11:57:23.815598	acccuracy:	73.60	levenshtein:	0.61	message:	polish	guess:	../conll2018/task1/all\polish-medium-out	gold:	../conll2018/task1/all\polish-dev	task:	1
2018-08-15 11:57:24.038739	acccuracy:	88.40	levenshtein:	0.28	message:	polish	guess:	../conll2018/task1/all\polish-high-out	gold:	../conll2018/task1/all\polish-dev	task:	1
2018-08-15 11:57:24.265917	acccuracy:	65.70	levenshtein:	0.80	message:	portuguese	guess:	../conll2018/task1/all\portuguese-low-out	gold:	../conll2018/task1/all\portuguese-dev	task:	1
2018-08-15 11:57:24.486072	acccuracy:	92.20	levenshtein:	0.13	message:	portuguese	guess:	../conll2018/task1/all\portuguese-medium-out	gold:	../conll2018/task1/all\portuguese-dev	task:	1
2018-08-15 11:57:24.712217	acccuracy:	97.10	levenshtein:	0.05	message:	portuguese	guess:	../conll2018/task1/all\portuguese-high-out	gold:	../conll2018/task1/all\portuguese-dev	task:	1
2018-08-15 11:57:24.935376	acccuracy:	17.10	levenshtein:	6.27	message:	quechua	guess:	../conll2018/task1/all\quechua-low-out	gold:	../conll2018/task1/all\quechua-dev	task:	1
2018-08-15 11:57:25.186568	acccuracy:	71.50	levenshtein:	1.50	message:	quechua	guess:	../conll2018/task1/all\quechua-medium-out	gold:	../conll2018/task1/all\quechua-dev	task:	1
2018-08-15 11:57:25.578846	acccuracy:	95.20	levenshtein:	0.10	message:	quechua	guess:	../conll2018/task1/all\quechua-high-out	gold:	../conll2018/task1/all\quechua-dev	task:	1
2018-08-15 11:57:26.012141	acccuracy:	44.10	levenshtein:	1.55	message:	romanian	guess:	../conll2018/task1/all\romanian-low-out	gold:	../conll2018/task1/all\romanian-dev	task:	1
2018-08-15 11:57:26.206279	acccuracy:	70.20	levenshtein:	0.85	message:	romanian	guess:	../conll2018/task1/all\romanian-medium-out	gold:	../conll2018/task1/all\romanian-dev	task:	1
2018-08-15 11:57:26.416442	acccuracy:	80.40	levenshtein:	0.65	message:	romanian	guess:	../conll2018/task1/all\romanian-high-out	gold:	../conll2018/task1/all\romanian-dev	task:	1
2018-08-15 11:57:26.628593	acccuracy:	41.40	levenshtein:	1.26	message:	russian	guess:	../conll2018/task1/all\russian-low-out	gold:	../conll2018/task1/all\russian-dev	task:	1
2018-08-15 11:57:26.905777	acccuracy:	75.70	levenshtein:	0.64	message:	russian	guess:	../conll2018/task1/all\russian-medium-out	gold:	../conll2018/task1/all\russian-dev	task:	1
2018-08-15 11:57:27.189991	acccuracy:	85.20	levenshtein:	0.49	message:	russian	guess:	../conll2018/task1/all\russian-high-out	gold:	../conll2018/task1/all\russian-dev	task:	1
2018-08-15 11:57:27.463190	acccuracy:	30.00	levenshtein:	1.58	message:	sanskrit	guess:	../conll2018/task1/all\sanskrit-low-out	gold:	../conll2018/task1/all\sanskrit-dev	task:	1
2018-08-15 11:57:27.616295	acccuracy:	57.90	levenshtein:	0.80	message:	sanskrit	guess:	../conll2018/task1/all\sanskrit-medium-out	gold:	../conll2018/task1/all\sanskrit-dev	task:	1
2018-08-15 11:57:27.783400	acccuracy:	78.70	levenshtein:	0.39	message:	sanskrit	guess:	../conll2018/task1/all\sanskrit-high-out	gold:	../conll2018/task1/all\sanskrit-dev	task:	1
2018-08-15 11:57:27.947517	acccuracy:	42.00	levenshtein:	0.88	message:	scottish-gaelic	guess:	../conll2018/task1/all\scottish-gaelic-low-out	gold:	../conll2018/task1/all\scottish-gaelic-dev	task:	1
2018-08-15 11:57:27.956523	acccuracy:	46.00	levenshtein:	0.88	message:	scottish-gaelic	guess:	../conll2018/task1/all\scottish-gaelic-medium-out	gold:	../conll2018/task1/all\scottish-gaelic-dev	task:	1
2018-08-15 11:57:27.974536	acccuracy:	22.80	levenshtein:	2.54	message:	serbo-croatian	guess:	../conll2018/task1/all\serbo-croatian-low-out	gold:	../conll2018/task1/all\serbo-croatian-dev	task:	1
2018-08-15 11:57:28.210721	acccuracy:	67.30	levenshtein:	0.77	message:	serbo-croatian	guess:	../conll2018/task1/all\serbo-croatian-medium-out	gold:	../conll2018/task1/all\serbo-croatian-dev	task:	1
2018-08-15 11:57:28.476906	acccuracy:	84.00	levenshtein:	0.36	message:	serbo-croatian	guess:	../conll2018/task1/all\serbo-croatian-high-out	gold:	../conll2018/task1/all\serbo-croatian-dev	task:	1
2018-08-15 11:57:28.748099	acccuracy:	37.70	levenshtein:	1.13	message:	slovak	guess:	../conll2018/task1/all\slovak-low-out	gold:	../conll2018/task1/all\slovak-dev	task:	1
2018-08-15 11:57:28.863186	acccuracy:	71.00	levenshtein:	0.54	message:	slovak	guess:	../conll2018/task1/all\slovak-medium-out	gold:	../conll2018/task1/all\slovak-dev	task:	1
2018-08-15 11:57:28.983268	acccuracy:	82.50	levenshtein:	0.31	message:	slovak	guess:	../conll2018/task1/all\slovak-high-out	gold:	../conll2018/task1/all\slovak-dev	task:	1
2018-08-15 11:57:29.107359	acccuracy:	35.20	levenshtein:	1.12	message:	slovene	guess:	../conll2018/task1/all\slovene-low-out	gold:	../conll2018/task1/all\slovene-dev	task:	1
2018-08-15 11:57:29.281478	acccuracy:	73.50	levenshtein:	0.43	message:	slovene	guess:	../conll2018/task1/all\slovene-medium-out	gold:	../conll2018/task1/all\slovene-dev	task:	1
2018-08-15 11:57:29.460610	acccuracy:	87.30	levenshtein:	0.19	message:	slovene	guess:	../conll2018/task1/all\slovene-high-out	gold:	../conll2018/task1/all\slovene-dev	task:	1
2018-08-15 11:57:29.641739	acccuracy:	20.50	levenshtein:	3.36	message:	sorani	guess:	../conll2018/task1/all\sorani-low-out	gold:	../conll2018/task1/all\sorani-dev	task:	1
2018-08-15 11:57:29.793842	acccuracy:	52.80	levenshtein:	1.05	message:	sorani	guess:	../conll2018/task1/all\sorani-medium-out	gold:	../conll2018/task1/all\sorani-dev	task:	1
2018-08-15 11:57:29.987985	acccuracy:	64.30	levenshtein:	0.70	message:	sorani	guess:	../conll2018/task1/all\sorani-high-out	gold:	../conll2018/task1/all\sorani-dev	task:	1
2018-08-15 11:57:30.191129	acccuracy:	62.40	levenshtein:	1.11	message:	spanish	guess:	../conll2018/task1/all\spanish-low-out	gold:	../conll2018/task1/all\spanish-dev	task:	1
2018-08-15 11:57:30.432292	acccuracy:	85.90	levenshtein:	0.35	message:	spanish	guess:	../conll2018/task1/all\spanish-medium-out	gold:	../conll2018/task1/all\spanish-dev	task:	1
2018-08-15 11:57:30.682479	acccuracy:	91.50	levenshtein:	0.21	message:	spanish	guess:	../conll2018/task1/all\spanish-high-out	gold:	../conll2018/task1/all\spanish-dev	task:	1
2018-08-15 11:57:30.926647	acccuracy:	29.00	levenshtein:	2.49	message:	swahili	guess:	../conll2018/task1/all\swahili-low-out	gold:	../conll2018/task1/all\swahili-dev	task:	1
2018-08-15 11:57:30.940645	acccuracy:	71.00	levenshtein:	0.52	message:	swahili	guess:	../conll2018/task1/all\swahili-medium-out	gold:	../conll2018/task1/all\swahili-dev	task:	1
2018-08-15 11:57:30.957674	acccuracy:	72.00	levenshtein:	0.47	message:	swahili	guess:	../conll2018/task1/all\swahili-high-out	gold:	../conll2018/task1/all\swahili-dev	task:	1
2018-08-15 11:57:30.981673	acccuracy:	55.60	levenshtein:	0.81	message:	swedish	guess:	../conll2018/task1/all\swedish-low-out	gold:	../conll2018/task1/all\swedish-dev	task:	1
2018-08-15 11:57:31.237855	acccuracy:	75.20	levenshtein:	0.43	message:	swedish	guess:	../conll2018/task1/all\swedish-medium-out	gold:	../conll2018/task1/all\swedish-dev	task:	1
2018-08-15 11:57:31.485030	acccuracy:	86.00	levenshtein:	0.25	message:	swedish	guess:	../conll2018/task1/all\swedish-high-out	gold:	../conll2018/task1/all\swedish-dev	task:	1
2018-08-15 11:57:31.728222	acccuracy:	57.00	levenshtein:	0.82	message:	tatar	guess:	../conll2018/task1/all\tatar-low-out	gold:	../conll2018/task1/all\tatar-dev	task:	1
2018-08-15 11:57:31.746229	acccuracy:	85.00	levenshtein:	0.23	message:	tatar	guess:	../conll2018/task1/all\tatar-medium-out	gold:	../conll2018/task1/all\tatar-dev	task:	1
2018-08-15 11:57:31.765248	acccuracy:	91.00	levenshtein:	0.11	message:	tatar	guess:	../conll2018/task1/all\tatar-high-out	gold:	../conll2018/task1/all\tatar-dev	task:	1
2018-08-15 11:57:31.784261	acccuracy:	80.00	levenshtein:	0.70	message:	telugu	guess:	../conll2018/task1/all\telugu-low-out	gold:	../conll2018/task1/all\telugu-dev	task:	1
2018-08-15 11:57:31.798254	acccuracy:	54.00	levenshtein:	0.80	message:	tibetan	guess:	../conll2018/task1/all\tibetan-low-out	gold:	../conll2018/task1/all\tibetan-dev	task:	1
2018-08-15 11:57:31.801255	acccuracy:	48.00	levenshtein:	0.88	message:	tibetan	guess:	../conll2018/task1/all\tibetan-medium-out	gold:	../conll2018/task1/all\tibetan-dev	task:	1
2018-08-15 11:57:31.814264	acccuracy:	11.80	levenshtein:	4.60	message:	turkish	guess:	../conll2018/task1/all\turkish-low-out	gold:	../conll2018/task1/all\turkish-dev	task:	1
2018-08-15 11:57:32.107473	acccuracy:	32.10	levenshtein:	2.86	message:	turkish	guess:	../conll2018/task1/all\turkish-medium-out	gold:	../conll2018/task1/all\turkish-dev	task:	1
2018-08-15 11:57:32.444712	acccuracy:	72.40	levenshtein:	0.77	message:	turkish	guess:	../conll2018/task1/all\turkish-high-out	gold:	../conll2018/task1/all\turkish-dev	task:	1
2018-08-15 11:57:32.829987	acccuracy:	30.00	levenshtein:	1.66	message:	turkmen	guess:	../conll2018/task1/all\turkmen-low-out	gold:	../conll2018/task1/all\turkmen-dev	task:	1
2018-08-15 11:57:32.837005	acccuracy:	70.00	levenshtein:	0.48	message:	turkmen	guess:	../conll2018/task1/all\turkmen-medium-out	gold:	../conll2018/task1/all\turkmen-dev	task:	1
2018-08-15 11:57:32.852021	acccuracy:	39.40	levenshtein:	1.01	message:	ukrainian	guess:	../conll2018/task1/all\ukrainian-low-out	gold:	../conll2018/task1/all\ukrainian-dev	task:	1
2018-08-15 11:57:33.016129	acccuracy:	72.70	levenshtein:	0.55	message:	ukrainian	guess:	../conll2018/task1/all\ukrainian-medium-out	gold:	../conll2018/task1/all\ukrainian-dev	task:	1
2018-08-15 11:57:33.183255	acccuracy:	84.80	levenshtein:	0.27	message:	ukrainian	guess:	../conll2018/task1/all\ukrainian-high-out	gold:	../conll2018/task1/all\ukrainian-dev	task:	1
2018-08-15 11:57:33.356379	acccuracy:	29.90	levenshtein:	4.27	message:	urdu	guess:	../conll2018/task1/all\urdu-low-out	gold:	../conll2018/task1/all\urdu-dev	task:	1
2018-08-15 11:57:33.576530	acccuracy:	86.80	levenshtein:	0.27	message:	urdu	guess:	../conll2018/task1/all\urdu-medium-out	gold:	../conll2018/task1/all\urdu-dev	task:	1
2018-08-15 11:57:33.867724	acccuracy:	96.00	levenshtein:	0.06	message:	urdu	guess:	../conll2018/task1/all\urdu-high-out	gold:	../conll2018/task1/all\urdu-dev	task:	1
2018-08-15 11:57:34.148924	acccuracy:	53.00	levenshtein:	2.12	message:	uzbek	guess:	../conll2018/task1/all\uzbek-low-out	gold:	../conll2018/task1/all\uzbek-dev	task:	1
2018-08-15 11:57:34.176944	acccuracy:	93.00	levenshtein:	0.07	message:	uzbek	guess:	../conll2018/task1/all\uzbek-medium-out	gold:	../conll2018/task1/all\uzbek-dev	task:	1
2018-08-15 11:57:34.209978	acccuracy:	93.00	levenshtein:	0.07	message:	uzbek	guess:	../conll2018/task1/all\uzbek-high-out	gold:	../conll2018/task1/all\uzbek-dev	task:	1
2018-08-15 11:57:34.249008	acccuracy:	69.00	levenshtein:	0.59	message:	venetian	guess:	../conll2018/task1/all\venetian-low-out	gold:	../conll2018/task1/all\venetian-dev	task:	1
2018-08-15 11:57:34.383104	acccuracy:	89.50	levenshtein:	0.15	message:	venetian	guess:	../conll2018/task1/all\venetian-medium-out	gold:	../conll2018/task1/all\venetian-dev	task:	1
2018-08-15 11:57:34.520201	acccuracy:	93.70	levenshtein:	0.08	message:	venetian	guess:	../conll2018/task1/all\venetian-high-out	gold:	../conll2018/task1/all\venetian-dev	task:	1
2018-08-15 11:57:34.652281	acccuracy:	15.00	levenshtein:	1.88	message:	votic	guess:	../conll2018/task1/all\votic-low-out	gold:	../conll2018/task1/all\votic-dev	task:	1
2018-08-15 11:57:34.664290	acccuracy:	38.00	levenshtein:	1.12	message:	votic	guess:	../conll2018/task1/all\votic-medium-out	gold:	../conll2018/task1/all\votic-dev	task:	1
2018-08-15 11:57:34.676299	acccuracy:	41.00	levenshtein:	1.05	message:	votic	guess:	../conll2018/task1/all\votic-high-out	gold:	../conll2018/task1/all\votic-dev	task:	1
2018-08-15 11:57:34.688323	acccuracy:	26.00	levenshtein:	1.56	message:	welsh	guess:	../conll2018/task1/all\welsh-low-out	gold:	../conll2018/task1/all\welsh-dev	task:	1
2018-08-15 11:57:34.708321	acccuracy:	55.00	levenshtein:	1.37	message:	welsh	guess:	../conll2018/task1/all\welsh-medium-out	gold:	../conll2018/task1/all\welsh-dev	task:	1
2018-08-15 11:57:34.727335	acccuracy:	71.00	levenshtein:	0.48	message:	welsh	guess:	../conll2018/task1/all\welsh-high-out	gold:	../conll2018/task1/all\welsh-dev	task:	1
2018-08-15 11:57:34.748350	acccuracy:	47.00	levenshtein:	1.32	message:	west-frisian	guess:	../conll2018/task1/all\west-frisian-low-out	gold:	../conll2018/task1/all\west-frisian-dev	task:	1
2018-08-15 11:57:34.758375	acccuracy:	66.00	levenshtein:	1.03	message:	west-frisian	guess:	../conll2018/task1/all\west-frisian-medium-out	gold:	../conll2018/task1/all\west-frisian-dev	task:	1
2018-08-15 11:57:34.777395	acccuracy:	66.00	levenshtein:	1.04	message:	west-frisian	guess:	../conll2018/task1/all\west-frisian-high-out	gold:	../conll2018/task1/all\west-frisian-dev	task:	1
2018-08-15 11:57:34.803406	acccuracy:	70.00	levenshtein:	0.61	message:	yiddish	guess:	../conll2018/task1/all\yiddish-low-out	gold:	../conll2018/task1/all\yiddish-dev	task:	1
2018-08-15 11:57:34.832410	acccuracy:	80.00	levenshtein:	0.35	message:	yiddish	guess:	../conll2018/task1/all\yiddish-medium-out	gold:	../conll2018/task1/all\yiddish-dev	task:	1
2018-08-15 11:57:34.850440	acccuracy:	88.00	levenshtein:	0.22	message:	yiddish	guess:	../conll2018/task1/all\yiddish-high-out	gold:	../conll2018/task1/all\yiddish-dev	task:	1
2018-08-15 11:57:34.875454	acccuracy:	19.20	levenshtein:	2.20	message:	zulu	guess:	../conll2018/task1/all\zulu-low-out	gold:	../conll2018/task1/all\zulu-dev	task:	1
2018-08-15 11:57:35.040571	acccuracy:	56.50	levenshtein:	0.91	message:	zulu	guess:	../conll2018/task1/all\zulu-medium-out	gold:	../conll2018/task1/all\zulu-dev	task:	1
2018-08-15 11:57:35.225708	acccuracy:	71.00	levenshtein:	0.58	message:	zulu	guess:	../conll2018/task1/all\zulu-high-out	gold:	../conll2018/task1/all\zulu-dev	task:	1
